{
  "RECORDS": [
    {
      "id": "1",
      "iown": "0",
      "iname": "Летняя рыбалка",
      "idate": ""
    },
    {
      "id": "2",
      "iown": "0",
      "iname": "Зимняя рыбалка",
      "idate": ""
    },
    {
      "id": "3",
      "iown": "0",
      "iname": "Оборудование",
      "idate": ""
    },
    {
      "id": "8",
      "iown": "1",
      "iname": "Катушки",
      "idate": ""
    },
    {
      "id": "7",
      "iown": "0",
      "iname": "Рыболовные аксессуары",
      "idate": ""
    },
    {
      "id": "9",
      "iown": "1",
      "iname": "Удилища",
      "idate": ""
    },
    {
      "id": "10",
      "iown": "1",
      "iname": "Лески",
      "idate": ""
    },
    {
      "id": "11",
      "iown": "1",
      "iname": "Приманки",
      "idate": ""
    },
    {
      "id": "12",
      "iown": "1",
      "iname": "Прикормки и арамотизаторы",
      "idate": ""
    },
    {
      "id": "13",
      "iown": "1",
      "iname": "Разные аксессуары",
      "idate": ""
    },
    {
      "id": "14",
      "iown": "2",
      "iname": "Палатки",
      "idate": ""
    },
    {
      "id": "15",
      "iown": "2",
      "iname": "Ледорубы",
      "idate": ""
    },
    {
      "id": "16",
      "iown": "2",
      "iname": "Ящики",
      "idate": ""
    },
    {
      "id": "17",
      "iown": "2",
      "iname": "Рыболовные сани",
      "idate": ""
    },
    {
      "id": "18",
      "iown": "2",
      "iname": "Жерлицы",
      "idate": ""
    },
    {
      "id": "19",
      "iown": "2",
      "iname": "Зимние удочки",
      "idate": ""
    },
    {
      "id": "20",
      "iown": "2",
      "iname": "Зимние приманки",
      "idate": ""
    },
    {
      "id": "21",
      "iown": "2",
      "iname": "Аксессуары для зимней рыбалки",
      "idate": ""
    },
    {
      "id": "22",
      "iown": "7",
      "iname": "Инструменты рыбака",
      "idate": ""
    },
    {
      "id": "23",
      "iown": "7",
      "iname": "Садки и подсачеки",
      "idate": ""
    },
    {
      "id": "24",
      "iown": "7",
      "iname": "Весы",
      "idate": ""
    },
    {
      "id": "25",
      "iown": "7",
      "iname": "Сигнализаторы поклевок",
      "idate": ""
    },
    {
      "id": "26",
      "iown": "7",
      "iname": "Подставки и стойки",
      "idate": ""
    },
    {
      "id": "27",
      "iown": "7",
      "iname": "Тубусы, чехлы, кофры",
      "idate": ""
    },
    {
      "id": "28",
      "iown": "3",
      "iname": "Эхолоты",
      "idate": ""
    },
    {
      "id": "29",
      "iown": "3",
      "iname": "Лодки",
      "idate": ""
    },
    {
      "id": "30",
      "iown": "3",
      "iname": "Электромоторы",
      "idate": ""
    },
    {
      "id": "31",
      "iown": "3",
      "iname": "Бензиновые моторы",
      "idate": ""
    }
  ]
}