{
  "RECORDS": [
    {
      "id": "4",
      "iregion": "0",
      "iraion": "2661",
      "ivodoem": "1100",
      "iname": "Молжив",
      "itype": "",
      "itext": "",
      "icdate": "0/0/0 00:00:00",
      "idate": "0",
      "irate": "0",
      "iattach": "",
      "iownid": "0",
      "ixcoord": "0",
      "iycoord": "0",
      "ipcount": "0",
      "ialias": "минводы, мин воды, адмиралтейский, молжив, молживе"
    },
    {
      "id": "3",
      "iregion": "0",
      "iraion": "1635",
      "ivodoem": "1100",
      "iname": "Вторая плотина",
      "itype": "",
      "itext": "",
      "icdate": "0/0/0 00:00:00",
      "idate": "0",
      "irate": "0",
      "iattach": "",
      "iownid": "0",
      "ixcoord": "0",
      "iycoord": "0",
      "ipcount": "0",
      "ialias": "Вторая плотина, вторая платина"
    },
    {
      "id": "5",
      "iregion": "0",
      "iraion": "2661",
      "ivodoem": "1100",
      "iname": "Казачка",
      "itype": "",
      "itext": "",
      "icdate": "0/0/0 00:00:00",
      "idate": "0",
      "irate": "0",
      "iattach": "",
      "iownid": "0",
      "ixcoord": "0",
      "iycoord": "0",
      "ipcount": "0",
      "ialias": "казачка, храм"
    },
    {
      "id": "6",
      "iregion": "0",
      "iraion": "1641",
      "ivodoem": "1100",
      "iname": "Гранитный",
      "itype": "",
      "itext": "",
      "icdate": "0/0/0 00:00:00",
      "idate": "0",
      "irate": "0",
      "iattach": "",
      "iownid": "0",
      "ixcoord": "0",
      "iycoord": "0",
      "ipcount": "0",
      "ialias": "гранитный"
    },
    {
      "id": "8",
      "iregion": "0",
      "iraion": "2661",
      "ivodoem": "1100",
      "iname": "Южный переход",
      "itype": "",
      "itext": "",
      "icdate": "0/0/0 00:00:00",
      "idate": "0",
      "irate": "0",
      "iattach": "",
      "iownid": "0",
      "ixcoord": "0",
      "iycoord": "0",
      "ipcount": "0",
      "ialias": "южный переход"
    },
    {
      "id": "24",
      "iregion": "0",
      "iraion": "1641",
      "ivodoem": "1100",
      "iname": "Грязнушенский",
      "itype": "",
      "itext": "",
      "icdate": "0/0/0 00:00:00",
      "idate": "0",
      "irate": "0",
      "iattach": "",
      "iownid": "0",
      "ixcoord": "0",
      "iycoord": "0",
      "ipcount": "0",
      "ialias": ""
    },
    {
      "id": "18",
      "iregion": "0",
      "iraion": "0",
      "ivodoem": "2278",
      "iname": "Сабановка",
      "itype": "",
      "itext": "",
      "icdate": "0/0/0 00:00:00",
      "idate": "0",
      "irate": "0",
      "iattach": "",
      "iownid": "0",
      "ixcoord": "0",
      "iycoord": "0",
      "ipcount": "0",
      "ialias": "собановка"
    },
    {
      "id": "25",
      "iregion": "0",
      "iraion": "1641",
      "ivodoem": "1100",
      "iname": "Богдановское",
      "itype": "",
      "itext": "",
      "icdate": "0/0/0 00:00:00",
      "idate": "0",
      "irate": "0",
      "iattach": "",
      "iownid": "0",
      "ixcoord": "0",
      "iycoord": "0",
      "ipcount": "0",
      "ialias": ""
    },
    {
      "id": "10",
      "iregion": "0",
      "iraion": "1635",
      "ivodoem": "1100",
      "iname": "Воздвиженка",
      "itype": "",
      "itext": "",
      "icdate": "0/0/0 00:00:00",
      "idate": "0",
      "irate": "0",
      "iattach": "",
      "iownid": "0",
      "ixcoord": "0",
      "iycoord": "0",
      "ipcount": "0",
      "ialias": "воздвиженка"
    },
    {
      "id": "11",
      "iregion": "0",
      "iraion": "1635",
      "ivodoem": "1100",
      "iname": "Аблязово",
      "itype": "",
      "itext": "",
      "icdate": "0/0/0 00:00:00",
      "idate": "0",
      "irate": "0",
      "iattach": "",
      "iownid": "0",
      "ixcoord": "0",
      "iycoord": "0",
      "ipcount": "0",
      "ialias": "Аблязово"
    },
    {
      "id": "12",
      "iregion": "0",
      "iraion": "1635",
      "ivodoem": "1100",
      "iname": "Черноотрог",
      "itype": "",
      "itext": "",
      "icdate": "0/0/0 00:00:00",
      "idate": "0",
      "irate": "0",
      "iattach": "",
      "iownid": "0",
      "ixcoord": "0",
      "iycoord": "0",
      "ipcount": "0",
      "ialias": "Черноотрог"
    },
    {
      "id": "13",
      "iregion": "0",
      "iraion": "1635",
      "ivodoem": "1100",
      "iname": "Светлогорск",
      "itype": "",
      "itext": "",
      "icdate": "0/0/0 00:00:00",
      "idate": "0",
      "irate": "0",
      "iattach": "",
      "iownid": "0",
      "ixcoord": "0",
      "iycoord": "0",
      "ipcount": "0",
      "ialias": "Светлогорск"
    },
    {
      "id": "14",
      "iregion": "0",
      "iraion": "1635",
      "ivodoem": "1100",
      "iname": "Ташказган",
      "itype": "",
      "itext": "",
      "icdate": "0/0/0 00:00:00",
      "idate": "0",
      "irate": "0",
      "iattach": "",
      "iownid": "0",
      "ixcoord": "0",
      "iycoord": "0",
      "ipcount": "0",
      "ialias": "ташказган"
    },
    {
      "id": "15",
      "iregion": "0",
      "iraion": "1635",
      "ivodoem": "1100",
      "iname": "Гранитный",
      "itype": "",
      "itext": "",
      "icdate": "0/0/0 00:00:00",
      "idate": "0",
      "irate": "0",
      "iattach": "",
      "iownid": "0",
      "ixcoord": "0",
      "iycoord": "0",
      "ipcount": "0",
      "ialias": "гранитный"
    },
    {
      "id": "16",
      "iregion": "0",
      "iraion": "1641",
      "ivodoem": "1100",
      "iname": "Сыртинский",
      "itype": "",
      "itext": "",
      "icdate": "0/0/0 00:00:00",
      "idate": "0",
      "irate": "0",
      "iattach": "",
      "iownid": "0",
      "ixcoord": "0",
      "iycoord": "0",
      "ipcount": "0",
      "ialias": "Сыртинский, сыртинка"
    },
    {
      "id": "23",
      "iregion": "0",
      "iraion": "1635",
      "ivodoem": "2278",
      "iname": "Сабановка",
      "itype": "",
      "itext": "",
      "icdate": "0/0/0 00:00:00",
      "idate": "0",
      "irate": "0",
      "iattach": "",
      "iownid": "0",
      "ixcoord": "0",
      "iycoord": "0",
      "ipcount": "0",
      "ialias": "собановка"
    },
    {
      "id": "22",
      "iregion": "0",
      "iraion": "1635",
      "ivodoem": "2278",
      "iname": "Спасский мост",
      "itype": "",
      "itext": "",
      "icdate": "0/0/0 00:00:00",
      "idate": "0",
      "irate": "0",
      "iattach": "",
      "iownid": "0",
      "ixcoord": "0",
      "iycoord": "0",
      "ipcount": "0",
      "ialias": "спасск, спаск"
    },
    {
      "id": "26",
      "iregion": "0",
      "iraion": "1635",
      "ivodoem": "1100",
      "iname": "Выработки",
      "itype": "",
      "itext": "",
      "icdate": "0/0/0 00:00:00",
      "idate": "0",
      "irate": "0",
      "iattach": "",
      "iownid": "0",
      "ixcoord": "0",
      "iycoord": "0",
      "ipcount": "0",
      "ialias": "за агаповку"
    },
    {
      "id": "27",
      "iregion": "0",
      "iraion": "1635",
      "ivodoem": "2278",
      "iname": "ЖОС",
      "itype": "",
      "itext": "",
      "icdate": "0/0/0 00:00:00",
      "idate": "0",
      "irate": "0",
      "iattach": "",
      "iownid": "0",
      "ixcoord": "0",
      "iycoord": "0",
      "ipcount": "0",
      "ialias": "желтинский"
    },
    {
      "id": "28",
      "iregion": "0",
      "iraion": "1635",
      "ivodoem": "2278",
      "iname": "Коровий пляж",
      "itype": "",
      "itext": "",
      "icdate": "0/0/0 00:00:00",
      "idate": "0",
      "irate": "0",
      "iattach": "",
      "iownid": "0",
      "ixcoord": "0",
      "iycoord": "0",
      "ipcount": "0",
      "ialias": "коровка"
    },
    {
      "id": "29",
      "iregion": "0",
      "iraion": "2661",
      "ivodoem": "1100",
      "iname": "Зеленка",
      "itype": "",
      "itext": "",
      "icdate": "0/0/0 00:00:00",
      "idate": "0",
      "irate": "0",
      "iattach": "",
      "iownid": "0",
      "ixcoord": "0",
      "iycoord": "0",
      "ipcount": "0",
      "ialias": "зелёнка"
    },
    {
      "id": "30",
      "iregion": "0",
      "iraion": "2661",
      "ivodoem": "1100",
      "iname": "ТЭЦ",
      "itype": "",
      "itext": "",
      "icdate": "0/0/0 00:00:00",
      "idate": "0",
      "irate": "0",
      "iattach": "",
      "iownid": "0",
      "ixcoord": "0",
      "iycoord": "0",
      "ipcount": "0",
      "ialias": ""
    },
    {
      "id": "31",
      "iregion": "0",
      "iraion": "2661",
      "ivodoem": "1100",
      "iname": "Северный мост",
      "itype": "",
      "itext": "",
      "icdate": "0/0/0 00:00:00",
      "idate": "0",
      "irate": "0",
      "iattach": "",
      "iownid": "0",
      "ixcoord": "0",
      "iycoord": "0",
      "ipcount": "0",
      "ialias": ""
    },
    {
      "id": "35",
      "iregion": "0",
      "iraion": "1198",
      "ivodoem": "1100",
      "iname": "Татищево",
      "itype": "",
      "itext": "",
      "icdate": "0/0/0 00:00:00",
      "idate": "0",
      "irate": "0",
      "iattach": "",
      "iownid": "0",
      "ixcoord": "0",
      "iycoord": "0",
      "ipcount": "0",
      "ialias": ""
    },
    {
      "id": "32",
      "iregion": "0",
      "iraion": "128",
      "ivodoem": "1100",
      "iname": "Уразово",
      "itype": "",
      "itext": "",
      "icdate": "0/0/0 00:00:00",
      "idate": "0",
      "irate": "0",
      "iattach": "",
      "iownid": "0",
      "ixcoord": "0",
      "iycoord": "0",
      "ipcount": "0",
      "ialias": ""
    },
    {
      "id": "33",
      "iregion": "0",
      "iraion": "89",
      "ivodoem": "2334",
      "iname": "Сакмарское водохранилище",
      "itype": "",
      "itext": "",
      "icdate": "0/0/0 00:00:00",
      "idate": "0",
      "irate": "0",
      "iattach": "",
      "iownid": "0",
      "ixcoord": "0",
      "iycoord": "0",
      "ipcount": "0",
      "ialias": "сакмарское"
    },
    {
      "id": "34",
      "iregion": "0",
      "iraion": "1820",
      "ivodoem": "1100",
      "iname": "Красногор",
      "itype": "",
      "itext": "",
      "icdate": "0/0/0 00:00:00",
      "idate": "0",
      "irate": "0",
      "iattach": "",
      "iownid": "0",
      "ixcoord": "0",
      "iycoord": "0",
      "ipcount": "0",
      "ialias": ""
    },
    {
      "id": "36",
      "iregion": "0",
      "iraion": "1202",
      "ivodoem": "1100",
      "iname": "Беляевка",
      "itype": "",
      "itext": "",
      "icdate": "0/0/0 00:00:00",
      "idate": "0",
      "irate": "0",
      "iattach": "",
      "iownid": "0",
      "ixcoord": "0",
      "iycoord": "0",
      "ipcount": "0",
      "ialias": ""
    },
    {
      "id": "37",
      "iregion": "0",
      "iraion": "1820",
      "ivodoem": "2334",
      "iname": "Саракташ",
      "itype": "",
      "itext": "",
      "icdate": "0/0/0 00:00:00",
      "idate": "0",
      "irate": "0",
      "iattach": "",
      "iownid": "0",
      "ixcoord": "0",
      "iycoord": "0",
      "ipcount": "0",
      "ialias": ""
    },
    {
      "id": "38",
      "iregion": "0",
      "iraion": "1204",
      "ivodoem": "3565",
      "iname": "Димитровское водохранилище",
      "itype": "",
      "itext": "",
      "icdate": "0/0/0 00:00:00",
      "idate": "0",
      "irate": "0",
      "iattach": "",
      "iownid": "0",
      "ixcoord": "0",
      "iycoord": "0",
      "ipcount": "0",
      "ialias": "димитровское, димитровский, диметровское, диметровском"
    }
  ]
}