{
  "RECORDS": [
    {
      "id": "16358",
      "ipost": "9449",
      "iregion": "2",
      "iraion": "102"
    },
    {
      "id": "16333",
      "ipost": "9445",
      "iregion": "56",
      "iraion": "0"
    },
    {
      "id": "16226",
      "ipost": "9482",
      "iregion": "2",
      "iraion": "102"
    },
    {
      "id": "16277",
      "ipost": "9464",
      "iregion": "2",
      "iraion": "0"
    },
    {
      "id": "16281",
      "ipost": "9481",
      "iregion": "2",
      "iraion": "96"
    },
    {
      "id": "91084",
      "ipost": "16008",
      "iregion": "74",
      "iraion": "1647"
    },
    {
      "id": "16379",
      "ipost": "9568",
      "iregion": "2",
      "iraion": "117"
    },
    {
      "id": "16371",
      "ipost": "9492",
      "iregion": "2",
      "iraion": "98"
    },
    {
      "id": "16302",
      "ipost": "9456",
      "iregion": "2",
      "iraion": "102"
    },
    {
      "id": "16345",
      "ipost": "9386",
      "iregion": "2",
      "iraion": "0"
    },
    {
      "id": "16339",
      "ipost": "9608",
      "iregion": "56",
      "iraion": "0"
    },
    {
      "id": "16230",
      "ipost": "9539",
      "iregion": "2",
      "iraion": "102"
    },
    {
      "id": "16310",
      "ipost": "9521",
      "iregion": "2",
      "iraion": "102"
    },
    {
      "id": "16329",
      "ipost": "9605",
      "iregion": "56",
      "iraion": "0"
    },
    {
      "id": "16228",
      "ipost": "9558",
      "iregion": "2",
      "iraion": "0"
    },
    {
      "id": "16309",
      "ipost": "9519",
      "iregion": "2",
      "iraion": "102"
    },
    {
      "id": "16317",
      "ipost": "9566",
      "iregion": "2",
      "iraion": "102"
    },
    {
      "id": "16264",
      "ipost": "9507",
      "iregion": "2",
      "iraion": "102"
    },
    {
      "id": "16315",
      "ipost": "9559",
      "iregion": "2",
      "iraion": "102"
    },
    {
      "id": "16283",
      "ipost": "9529",
      "iregion": "2",
      "iraion": "102"
    },
    {
      "id": "16258",
      "ipost": "9591",
      "iregion": "2",
      "iraion": "102"
    },
    {
      "id": "16360",
      "ipost": "9447",
      "iregion": "2",
      "iraion": "132"
    },
    {
      "id": "16275",
      "ipost": "9434",
      "iregion": "2",
      "iraion": "0"
    },
    {
      "id": "16318",
      "ipost": "9584",
      "iregion": "2",
      "iraion": "102"
    },
    {
      "id": "16265",
      "ipost": "9509",
      "iregion": "2",
      "iraion": "102"
    },
    {
      "id": "16338",
      "ipost": "9585",
      "iregion": "56",
      "iraion": "0"
    },
    {
      "id": "16347",
      "ipost": "9458",
      "iregion": "2",
      "iraion": "0"
    },
    {
      "id": "16273",
      "ipost": "9427",
      "iregion": "2",
      "iraion": "0"
    },
    {
      "id": "16291",
      "ipost": "9388",
      "iregion": "2",
      "iraion": "102"
    },
    {
      "id": "16343",
      "ipost": "9516",
      "iregion": "2",
      "iraion": "131"
    },
    {
      "id": "16354",
      "ipost": "9394",
      "iregion": "2",
      "iraion": "0"
    },
    {
      "id": "16312",
      "ipost": "9524",
      "iregion": "2",
      "iraion": "1751"
    },
    {
      "id": "16298",
      "ipost": "9432",
      "iregion": "2",
      "iraion": "102"
    },
    {
      "id": "16259",
      "ipost": "9593",
      "iregion": "2",
      "iraion": "102"
    },
    {
      "id": "16303",
      "ipost": "9466",
      "iregion": "2",
      "iraion": "102"
    },
    {
      "id": "16233",
      "ipost": "9498",
      "iregion": "2",
      "iraion": "0"
    },
    {
      "id": "16239",
      "ipost": "9539",
      "iregion": "74",
      "iraion": "1633"
    },
    {
      "id": "16296",
      "ipost": "9426",
      "iregion": "2",
      "iraion": "102"
    },
    {
      "id": "16272",
      "ipost": "9422",
      "iregion": "2",
      "iraion": "0"
    },
    {
      "id": "16306",
      "ipost": "9495",
      "iregion": "2",
      "iraion": "102"
    },
    {
      "id": "16351",
      "ipost": "9573",
      "iregion": "2",
      "iraion": "98"
    },
    {
      "id": "16311",
      "ipost": "9522",
      "iregion": "2",
      "iraion": "102"
    },
    {
      "id": "16346",
      "ipost": "9391",
      "iregion": "2",
      "iraion": "0"
    },
    {
      "id": "16234",
      "ipost": "9504",
      "iregion": "2",
      "iraion": "0"
    },
    {
      "id": "16304",
      "ipost": "9479",
      "iregion": "2",
      "iraion": "102"
    },
    {
      "id": "16253",
      "ipost": "9547",
      "iregion": "2",
      "iraion": "102"
    },
    {
      "id": "16364",
      "ipost": "9592",
      "iregion": "2",
      "iraion": "96"
    },
    {
      "id": "16246",
      "ipost": "9435",
      "iregion": "2",
      "iraion": "102"
    },
    {
      "id": "16322",
      "ipost": "9497",
      "iregion": "56",
      "iraion": "0"
    },
    {
      "id": "16247",
      "ipost": "9436",
      "iregion": "2",
      "iraion": "102"
    },
    {
      "id": "16342",
      "ipost": "9443",
      "iregion": "2",
      "iraion": "0"
    },
    {
      "id": "16365",
      "ipost": "9421",
      "iregion": "2",
      "iraion": "1751"
    },
    {
      "id": "16274",
      "ipost": "9433",
      "iregion": "2",
      "iraion": "0"
    },
    {
      "id": "16286",
      "ipost": "9537",
      "iregion": "2",
      "iraion": "0"
    },
    {
      "id": "16335",
      "ipost": "9516",
      "iregion": "56",
      "iraion": "0"
    },
    {
      "id": "16356",
      "ipost": "9396",
      "iregion": "2",
      "iraion": "109"
    },
    {
      "id": "16349",
      "ipost": "9517",
      "iregion": "2",
      "iraion": "96"
    },
    {
      "id": "16370",
      "ipost": "9441",
      "iregion": "2",
      "iraion": "98"
    },
    {
      "id": "16279",
      "ipost": "9473",
      "iregion": "2",
      "iraion": "0"
    },
    {
      "id": "16374",
      "ipost": "9430",
      "iregion": "2",
      "iraion": "0"
    },
    {
      "id": "16366",
      "ipost": "9497",
      "iregion": "2",
      "iraion": "1751"
    },
    {
      "id": "16240",
      "ipost": "9544",
      "iregion": "74",
      "iraion": "1633"
    },
    {
      "id": "16308",
      "ipost": "9505",
      "iregion": "2",
      "iraion": "102"
    },
    {
      "id": "16316",
      "ipost": "9562",
      "iregion": "2",
      "iraion": "102"
    },
    {
      "id": "16237",
      "ipost": "9604",
      "iregion": "2",
      "iraion": "0"
    },
    {
      "id": "16297",
      "ipost": "9428",
      "iregion": "2",
      "iraion": "102"
    },
    {
      "id": "16359",
      "ipost": "9599",
      "iregion": "2",
      "iraion": "102"
    },
    {
      "id": "16313",
      "ipost": "9531",
      "iregion": "2",
      "iraion": "102"
    },
    {
      "id": "16320",
      "ipost": "9590",
      "iregion": "2",
      "iraion": "102"
    },
    {
      "id": "16285",
      "ipost": "9535",
      "iregion": "2",
      "iraion": "98"
    },
    {
      "id": "16341",
      "ipost": "9392",
      "iregion": "2",
      "iraion": "88"
    },
    {
      "id": "16248",
      "ipost": "9438",
      "iregion": "2",
      "iraion": "102"
    },
    {
      "id": "16353",
      "ipost": "9402",
      "iregion": "2",
      "iraion": "1751"
    },
    {
      "id": "16243",
      "ipost": "9497",
      "iregion": "74",
      "iraion": "19"
    },
    {
      "id": "16373",
      "ipost": "9608",
      "iregion": "2",
      "iraion": "98"
    },
    {
      "id": "16257",
      "ipost": "9565",
      "iregion": "2",
      "iraion": "0"
    },
    {
      "id": "16249",
      "ipost": "9461",
      "iregion": "2",
      "iraion": "102"
    },
    {
      "id": "16292",
      "ipost": "9393",
      "iregion": "2",
      "iraion": "102"
    },
    {
      "id": "16227",
      "ipost": "9553",
      "iregion": "2",
      "iraion": "0"
    },
    {
      "id": "16271",
      "ipost": "9615",
      "iregion": "2",
      "iraion": "0"
    },
    {
      "id": "16232",
      "ipost": "9598",
      "iregion": "2",
      "iraion": "0"
    },
    {
      "id": "16326",
      "ipost": "9613",
      "iregion": "56",
      "iraion": "0"
    },
    {
      "id": "16278",
      "ipost": "9403",
      "iregion": "2",
      "iraion": "102"
    },
    {
      "id": "16256",
      "ipost": "9563",
      "iregion": "2",
      "iraion": "102"
    },
    {
      "id": "16250",
      "ipost": "9518",
      "iregion": "2",
      "iraion": "102"
    },
    {
      "id": "16363",
      "ipost": "9554",
      "iregion": "2",
      "iraion": "96"
    },
    {
      "id": "16328",
      "ipost": "9577",
      "iregion": "56",
      "iraion": "0"
    },
    {
      "id": "16269",
      "ipost": "9390",
      "iregion": "2",
      "iraion": "102"
    },
    {
      "id": "16280",
      "ipost": "9478",
      "iregion": "2",
      "iraion": "102"
    },
    {
      "id": "16289",
      "ipost": "9609",
      "iregion": "2",
      "iraion": "0"
    },
    {
      "id": "16300",
      "ipost": "9445",
      "iregion": "2",
      "iraion": "102"
    },
    {
      "id": "16245",
      "ipost": "9408",
      "iregion": "2",
      "iraion": "102"
    },
    {
      "id": "16377",
      "ipost": "9532",
      "iregion": "2",
      "iraion": "0"
    },
    {
      "id": "16332",
      "ipost": "9437",
      "iregion": "56",
      "iraion": "0"
    },
    {
      "id": "16376",
      "ipost": "9510",
      "iregion": "2",
      "iraion": "0"
    },
    {
      "id": "16295",
      "ipost": "9425",
      "iregion": "2",
      "iraion": "102"
    },
    {
      "id": "16336",
      "ipost": "9527",
      "iregion": "56",
      "iraion": "0"
    },
    {
      "id": "16254",
      "ipost": "9548",
      "iregion": "2",
      "iraion": "0"
    },
    {
      "id": "16324",
      "ipost": "9510",
      "iregion": "56",
      "iraion": "0"
    },
    {
      "id": "16263",
      "ipost": "9467",
      "iregion": "2",
      "iraion": "0"
    },
    {
      "id": "16323",
      "ipost": "9499",
      "iregion": "56",
      "iraion": "0"
    },
    {
      "id": "16378",
      "ipost": "9541",
      "iregion": "2",
      "iraion": "0"
    },
    {
      "id": "16268",
      "ipost": "9606",
      "iregion": "2",
      "iraion": "0"
    },
    {
      "id": "16231",
      "ipost": "9544",
      "iregion": "2",
      "iraion": "0"
    },
    {
      "id": "16321",
      "ipost": "9475",
      "iregion": "56",
      "iraion": "0"
    },
    {
      "id": "16284",
      "ipost": "9534",
      "iregion": "2",
      "iraion": "0"
    },
    {
      "id": "3149",
      "ipost": "10138",
      "iregion": "56",
      "iraion": "0"
    },
    {
      "id": "16319",
      "ipost": "9588",
      "iregion": "2",
      "iraion": "102"
    },
    {
      "id": "16337",
      "ipost": "9550",
      "iregion": "56",
      "iraion": "0"
    },
    {
      "id": "16255",
      "ipost": "9555",
      "iregion": "2",
      "iraion": "0"
    },
    {
      "id": "16241",
      "ipost": "9598",
      "iregion": "74",
      "iraion": "1633"
    },
    {
      "id": "16236",
      "ipost": "9580",
      "iregion": "2",
      "iraion": "102"
    },
    {
      "id": "16238",
      "ipost": "9397",
      "iregion": "74",
      "iraion": "1633"
    },
    {
      "id": "16344",
      "ipost": "9569",
      "iregion": "2",
      "iraion": "131"
    },
    {
      "id": "16276",
      "ipost": "9455",
      "iregion": "2",
      "iraion": "0"
    },
    {
      "id": "16290",
      "ipost": "9387",
      "iregion": "2",
      "iraion": "102"
    },
    {
      "id": "16350",
      "ipost": "9561",
      "iregion": "2",
      "iraion": "0"
    },
    {
      "id": "16229",
      "ipost": "9397",
      "iregion": "2",
      "iraion": "102"
    },
    {
      "id": "16362",
      "ipost": "9525",
      "iregion": "2",
      "iraion": "96"
    },
    {
      "id": "16261",
      "ipost": "9384",
      "iregion": "2",
      "iraion": "102"
    },
    {
      "id": "16355",
      "ipost": "9419",
      "iregion": "2",
      "iraion": "122"
    },
    {
      "id": "16348",
      "ipost": "9493",
      "iregion": "2",
      "iraion": "0"
    },
    {
      "id": "16294",
      "ipost": "9416",
      "iregion": "2",
      "iraion": "102"
    },
    {
      "id": "16299",
      "ipost": "9442",
      "iregion": "2",
      "iraion": "102"
    },
    {
      "id": "16372",
      "ipost": "9549",
      "iregion": "2",
      "iraion": "98"
    },
    {
      "id": "16330",
      "ipost": "9412",
      "iregion": "56",
      "iraion": "0"
    },
    {
      "id": "16314",
      "ipost": "9533",
      "iregion": "2",
      "iraion": "102"
    },
    {
      "id": "16327",
      "ipost": "9543",
      "iregion": "56",
      "iraion": "0"
    },
    {
      "id": "16367",
      "ipost": "9513",
      "iregion": "2",
      "iraion": "0"
    },
    {
      "id": "16369",
      "ipost": "9389",
      "iregion": "2",
      "iraion": "98"
    },
    {
      "id": "16244",
      "ipost": "9395",
      "iregion": "2",
      "iraion": "102"
    },
    {
      "id": "16288",
      "ipost": "9600",
      "iregion": "2",
      "iraion": "102"
    },
    {
      "id": "16334",
      "ipost": "9474",
      "iregion": "56",
      "iraion": "0"
    },
    {
      "id": "16235",
      "ipost": "9536",
      "iregion": "2",
      "iraion": "90"
    },
    {
      "id": "16293",
      "ipost": "9399",
      "iregion": "2",
      "iraion": "102"
    },
    {
      "id": "16307",
      "ipost": "9502",
      "iregion": "2",
      "iraion": "102"
    },
    {
      "id": "16267",
      "ipost": "9597",
      "iregion": "2",
      "iraion": "0"
    },
    {
      "id": "16287",
      "ipost": "9579",
      "iregion": "2",
      "iraion": "0"
    },
    {
      "id": "16266",
      "ipost": "9596",
      "iregion": "2",
      "iraion": "0"
    },
    {
      "id": "16260",
      "ipost": "9595",
      "iregion": "2",
      "iraion": "102"
    },
    {
      "id": "16252",
      "ipost": "9542",
      "iregion": "2",
      "iraion": "102"
    },
    {
      "id": "16270",
      "ipost": "9494",
      "iregion": "2",
      "iraion": "102"
    },
    {
      "id": "16301",
      "ipost": "9446",
      "iregion": "2",
      "iraion": "102"
    },
    {
      "id": "16305",
      "ipost": "9480",
      "iregion": "2",
      "iraion": "102"
    },
    {
      "id": "16282",
      "ipost": "9511",
      "iregion": "2",
      "iraion": "102"
    },
    {
      "id": "16251",
      "ipost": "9530",
      "iregion": "2",
      "iraion": "102"
    },
    {
      "id": "16242",
      "ipost": "9421",
      "iregion": "74",
      "iraion": "19"
    },
    {
      "id": "16331",
      "ipost": "9415",
      "iregion": "56",
      "iraion": "0"
    },
    {
      "id": "16262",
      "ipost": "9409",
      "iregion": "2",
      "iraion": "102"
    },
    {
      "id": "16325",
      "ipost": "9611",
      "iregion": "56",
      "iraion": "0"
    },
    {
      "id": "16357",
      "ipost": "9418",
      "iregion": "2",
      "iraion": "102"
    },
    {
      "id": "16368",
      "ipost": "9453",
      "iregion": "2",
      "iraion": "137"
    },
    {
      "id": "16352",
      "ipost": "9617",
      "iregion": "2",
      "iraion": "0"
    },
    {
      "id": "16375",
      "ipost": "9471",
      "iregion": "2",
      "iraion": "0"
    },
    {
      "id": "16361",
      "ipost": "9567",
      "iregion": "2",
      "iraion": "84"
    },
    {
      "id": "16340",
      "ipost": "9407",
      "iregion": "2",
      "iraion": "0"
    },
    {
      "id": "3147",
      "ipost": "10135",
      "iregion": "56",
      "iraion": "0"
    },
    {
      "id": "3150",
      "ipost": "10139",
      "iregion": "56",
      "iraion": "0"
    },
    {
      "id": "3151",
      "ipost": "10142",
      "iregion": "56",
      "iraion": "0"
    },
    {
      "id": "3148",
      "ipost": "10136",
      "iregion": "56",
      "iraion": "0"
    },
    {
      "id": "90160",
      "ipost": "14823",
      "iregion": "96",
      "iraion": "315148"
    },
    {
      "id": "91664",
      "ipost": "16008",
      "iregion": "2",
      "iraion": "128"
    },
    {
      "id": "126742",
      "ipost": "23950",
      "iregion": "86",
      "iraion": "2726"
    },
    {
      "id": "128232",
      "ipost": "24161",
      "iregion": "59",
      "iraion": "2451"
    }
  ]
}