{
  "RECORDS": [
    {
      "id": "39",
      "iname": "Калининградская область",
      "itext": "",
      "icdate": "0/0/0 00:00:00",
      "idate": "0",
      "irate": "0",
      "iattach": "",
      "iownid": "33",
      "iautoid": "39",
      "ioldid": "1",
      "imodified": "1456173220",
      "ipcount": "0",
      "ivcount": "0"
    },
    {
      "id": "94",
      "iname": "Байконур",
      "itext": "",
      "icdate": "0/0/0 00:00:00",
      "idate": "1",
      "irate": "0",
      "iattach": "",
      "iownid": "76",
      "iautoid": "94",
      "ioldid": "2",
      "imodified": "1456173220",
      "ipcount": "0",
      "ivcount": "0"
    },
    {
      "id": "1",
      "iname": "Республика Адыгея",
      "itext": "",
      "icdate": "0/0/0 00:00:00",
      "idate": "1",
      "irate": "0",
      "iattach": "",
      "iownid": "1",
      "iautoid": "1",
      "ioldid": "3",
      "imodified": "1456173220",
      "ipcount": "0",
      "ivcount": "0"
    },
    {
      "id": "4",
      "iname": "Республика Алтай",
      "itext": "",
      "icdate": "0/0/0 00:00:00",
      "idate": "0",
      "irate": "0",
      "iattach": "",
      "iownid": "3",
      "iautoid": "4",
      "ioldid": "4",
      "imodified": "1456173220",
      "ipcount": "0",
      "ivcount": "0"
    },
    {
      "id": "2",
      "iname": "Республика Башкортостан",
      "itext": "",
      "icdate": "0/0/0 00:00:00",
      "idate": "0",
      "irate": "0",
      "iattach": "",
      "iownid": "2",
      "iautoid": "2",
      "ioldid": "5",
      "imodified": "1456173220",
      "ipcount": "1694",
      "ivcount": "1549"
    },
    {
      "id": "3",
      "iname": "Республика Бурятия",
      "itext": "",
      "icdate": "0/0/0 00:00:00",
      "idate": "1",
      "irate": "0",
      "iattach": "",
      "iownid": "163838",
      "iautoid": "3",
      "ioldid": "6",
      "imodified": "1456173220",
      "ipcount": "0",
      "ivcount": "0"
    },
    {
      "id": "5",
      "iname": "Республика Дагестан",
      "itext": "",
      "icdate": "0/0/0 00:00:00",
      "idate": "1",
      "irate": "0",
      "iattach": "",
      "iownid": "185855",
      "iautoid": "5",
      "ioldid": "7",
      "imodified": "1456173220",
      "ipcount": "0",
      "ivcount": "0"
    },
    {
      "id": "6",
      "iname": "Республика Ингушетия",
      "itext": "",
      "icdate": "0/0/0 00:00:00",
      "idate": "1",
      "irate": "0",
      "iattach": "",
      "iownid": "4",
      "iautoid": "6",
      "ioldid": "8",
      "imodified": "1456173220",
      "ipcount": "0",
      "ivcount": "0"
    },
    {
      "id": "7",
      "iname": "Кабардино-Балкарская Республика",
      "itext": "",
      "icdate": "0/0/0 00:00:00",
      "idate": "1",
      "irate": "0",
      "iattach": "",
      "iownid": "5",
      "iautoid": "7",
      "ioldid": "9",
      "imodified": "1456173220",
      "ipcount": "0",
      "ivcount": "0"
    },
    {
      "id": "8",
      "iname": "Республика Калмыкия",
      "itext": "",
      "icdate": "0/0/0 00:00:00",
      "idate": "1",
      "irate": "0",
      "iattach": "",
      "iownid": "179305",
      "iautoid": "8",
      "ioldid": "10",
      "imodified": "1456173220",
      "ipcount": "0",
      "ivcount": "0"
    },
    {
      "id": "9",
      "iname": "Карачаево-Черкесская Республика",
      "itext": "",
      "icdate": "0/0/0 00:00:00",
      "idate": "1",
      "irate": "0",
      "iattach": "",
      "iownid": "6",
      "iautoid": "9",
      "ioldid": "11",
      "imodified": "1456173220",
      "ipcount": "0",
      "ivcount": "0"
    },
    {
      "id": "10",
      "iname": "Республика Карелия",
      "itext": "",
      "icdate": "0/0/0 00:00:00",
      "idate": "0",
      "irate": "0",
      "iattach": "",
      "iownid": "7",
      "iautoid": "10",
      "ioldid": "12",
      "imodified": "1456173220",
      "ipcount": "0",
      "ivcount": "0"
    },
    {
      "id": "11",
      "iname": "Республика Коми",
      "itext": "",
      "icdate": "0/0/0 00:00:00",
      "idate": "0",
      "irate": "0",
      "iattach": "",
      "iownid": "8",
      "iautoid": "11",
      "ioldid": "13",
      "imodified": "1456173220",
      "ipcount": "0",
      "ivcount": "0"
    },
    {
      "id": "12",
      "iname": "Республика Марий Эл",
      "itext": "",
      "icdate": "0/0/0 00:00:00",
      "idate": "1",
      "irate": "0",
      "iattach": "",
      "iownid": "9",
      "iautoid": "12",
      "ioldid": "14",
      "imodified": "1456173220",
      "ipcount": "0",
      "ivcount": "0"
    },
    {
      "id": "13",
      "iname": "Республика Мордовия",
      "itext": "",
      "icdate": "0/0/0 00:00:00",
      "idate": "1",
      "irate": "0",
      "iattach": "",
      "iownid": "10",
      "iautoid": "13",
      "ioldid": "15",
      "imodified": "1456173220",
      "ipcount": "0",
      "ivcount": "0"
    },
    {
      "id": "14",
      "iname": "Республика Саха (Якутия)",
      "itext": "",
      "icdate": "0/0/0 00:00:00",
      "idate": "0",
      "irate": "0",
      "iattach": "",
      "iownid": "11",
      "iautoid": "14",
      "ioldid": "16",
      "imodified": "1456173220",
      "ipcount": "0",
      "ivcount": "0"
    },
    {
      "id": "15",
      "iname": "Республика Северная Осетия - Алания",
      "itext": "",
      "icdate": "0/0/0 00:00:00",
      "idate": "1",
      "irate": "0",
      "iattach": "",
      "iownid": "175954",
      "iautoid": "15",
      "ioldid": "17",
      "imodified": "1456173220",
      "ipcount": "0",
      "ivcount": "0"
    },
    {
      "id": "16",
      "iname": "Республики Татарстан",
      "itext": "",
      "icdate": "0/0/0 00:00:00",
      "idate": "1",
      "irate": "0",
      "iattach": "",
      "iownid": "12",
      "iautoid": "16",
      "ioldid": "18",
      "imodified": "1456173220",
      "ipcount": "0",
      "ivcount": "0"
    },
    {
      "id": "17",
      "iname": "Республика Тыва",
      "itext": "",
      "icdate": "0/0/0 00:00:00",
      "idate": "1",
      "irate": "0",
      "iattach": "",
      "iownid": "13",
      "iautoid": "17",
      "ioldid": "19",
      "imodified": "1456173220",
      "ipcount": "0",
      "ivcount": "0"
    },
    {
      "id": "18",
      "iname": "Удмуртская Республика",
      "itext": "",
      "icdate": "0/0/0 00:00:00",
      "idate": "1",
      "irate": "0",
      "iattach": "",
      "iownid": "14",
      "iautoid": "18",
      "ioldid": "20",
      "imodified": "1456173220",
      "ipcount": "0",
      "ivcount": "0"
    },
    {
      "id": "19",
      "iname": "Республика Хакасия",
      "itext": "",
      "icdate": "0/0/0 00:00:00",
      "idate": "0",
      "irate": "0",
      "iattach": "",
      "iownid": "15",
      "iautoid": "19",
      "ioldid": "21",
      "imodified": "1456173220",
      "ipcount": "0",
      "ivcount": "0"
    },
    {
      "id": "95",
      "iname": "Чеченская Республика",
      "itext": "",
      "icdate": "0/0/0 00:00:00",
      "idate": "1",
      "irate": "0",
      "iattach": "",
      "iownid": "146925",
      "iautoid": "95",
      "ioldid": "22",
      "imodified": "1456173220",
      "ipcount": "0",
      "ivcount": "0"
    },
    {
      "id": "21",
      "iname": "Чувашская Республика",
      "itext": "",
      "icdate": "0/0/0 00:00:00",
      "idate": "1",
      "irate": "0",
      "iattach": "",
      "iownid": "16",
      "iautoid": "21",
      "ioldid": "23",
      "imodified": "1456173220",
      "ipcount": "0",
      "ivcount": "0"
    },
    {
      "id": "22",
      "iname": "Алтайский край",
      "itext": "",
      "icdate": "0/0/0 00:00:00",
      "idate": "0",
      "irate": "0",
      "iattach": "",
      "iownid": "17",
      "iautoid": "22",
      "ioldid": "24",
      "imodified": "1456173220",
      "ipcount": "0",
      "ivcount": "0"
    },
    {
      "id": "75",
      "iname": "Забайкальский край",
      "itext": "",
      "icdate": "0/0/0 00:00:00",
      "idate": "0",
      "irate": "0",
      "iattach": "",
      "iownid": "67",
      "iautoid": "75",
      "ioldid": "25",
      "imodified": "1456173220",
      "ipcount": "0",
      "ivcount": "0"
    },
    {
      "id": "41",
      "iname": "Камчатский край",
      "itext": "",
      "icdate": "0/0/0 00:00:00",
      "idate": "0",
      "irate": "0",
      "iattach": "",
      "iownid": "35",
      "iautoid": "41",
      "ioldid": "26",
      "imodified": "1456173220",
      "ipcount": "0",
      "ivcount": "0"
    },
    {
      "id": "93",
      "iname": "Краснодарский край",
      "itext": "",
      "icdate": "0/0/0 00:00:00",
      "idate": "0",
      "irate": "0",
      "iattach": "",
      "iownid": "18",
      "iautoid": "93",
      "ioldid": "27",
      "imodified": "1456173220",
      "ipcount": "0",
      "ivcount": "0"
    },
    {
      "id": "24",
      "iname": "Красноярский край",
      "itext": "",
      "icdate": "0/0/0 00:00:00",
      "idate": "0",
      "irate": "0",
      "iattach": "",
      "iownid": "172708",
      "iautoid": "24",
      "ioldid": "28",
      "imodified": "1456173220",
      "ipcount": "0",
      "ivcount": "0"
    },
    {
      "id": "59",
      "iname": "Пермский край",
      "itext": "",
      "icdate": "0/0/0 00:00:00",
      "idate": "0",
      "irate": "0",
      "iattach": "",
      "iownid": "52",
      "iautoid": "59",
      "ioldid": "29",
      "imodified": "1456173220",
      "ipcount": "6755",
      "ivcount": "883"
    },
    {
      "id": "25",
      "iname": "Приморский край",
      "itext": "",
      "icdate": "0/0/0 00:00:00",
      "idate": "0",
      "irate": "0",
      "iattach": "",
      "iownid": "19",
      "iautoid": "25",
      "ioldid": "30",
      "imodified": "1456173220",
      "ipcount": "0",
      "ivcount": "0"
    },
    {
      "id": "26",
      "iname": "Ставропольский край",
      "itext": "",
      "icdate": "0/0/0 00:00:00",
      "idate": "0",
      "irate": "0",
      "iattach": "",
      "iownid": "20",
      "iautoid": "26",
      "ioldid": "31",
      "imodified": "1456173220",
      "ipcount": "0",
      "ivcount": "0"
    },
    {
      "id": "27",
      "iname": "Хабаровский край",
      "itext": "",
      "icdate": "0/0/0 00:00:00",
      "idate": "1",
      "irate": "0",
      "iattach": "",
      "iownid": "21",
      "iautoid": "27",
      "ioldid": "32",
      "imodified": "1456173220",
      "ipcount": "0",
      "ivcount": "0"
    },
    {
      "id": "79",
      "iname": "Еврейская автономная область",
      "itext": "",
      "icdate": "0/0/0 00:00:00",
      "idate": "1",
      "irate": "0",
      "iattach": "",
      "iownid": "69",
      "iautoid": "79",
      "ioldid": "33",
      "imodified": "1456173220",
      "ipcount": "0",
      "ivcount": "0"
    },
    {
      "id": "83",
      "iname": "Ненецкий автономный округ",
      "itext": "",
      "icdate": "0/0/0 00:00:00",
      "idate": "1",
      "irate": "0",
      "iattach": "",
      "iownid": "71",
      "iautoid": "83",
      "ioldid": "34",
      "imodified": "1456173220",
      "ipcount": "0",
      "ivcount": "0"
    },
    {
      "id": "86",
      "iname": "Ханты-Мансийский автономный округ - Югра",
      "itext": "",
      "icdate": "0/0/0 00:00:00",
      "idate": "1",
      "irate": "0",
      "iattach": "",
      "iownid": "73",
      "iautoid": "86",
      "ioldid": "35",
      "imodified": "1456173220",
      "ipcount": "1530",
      "ivcount": "854"
    },
    {
      "id": "87",
      "iname": "Чукотский автономный округ",
      "itext": "",
      "icdate": "0/0/0 00:00:00",
      "idate": "1",
      "irate": "0",
      "iattach": "",
      "iownid": "74",
      "iautoid": "87",
      "ioldid": "36",
      "imodified": "1456173220",
      "ipcount": "0",
      "ivcount": "0"
    },
    {
      "id": "89",
      "iname": "Ямало-Ненецкий автономный округ",
      "itext": "",
      "icdate": "0/0/0 00:00:00",
      "idate": "1",
      "irate": "0",
      "iattach": "",
      "iownid": "75",
      "iautoid": "89",
      "ioldid": "37",
      "imodified": "1456173220",
      "ipcount": "112",
      "ivcount": "213"
    },
    {
      "id": "77",
      "iname": "Москва",
      "itext": "",
      "icdate": "0/0/0 00:00:00",
      "idate": "1",
      "irate": "0",
      "iattach": "",
      "iownid": "182508",
      "iautoid": "77",
      "ioldid": "38",
      "imodified": "1456173220",
      "ipcount": "0",
      "ivcount": "0"
    },
    {
      "id": "98",
      "iname": "Санкт-Петербург",
      "itext": "",
      "icdate": "0/0/0 00:00:00",
      "idate": "1",
      "irate": "0",
      "iattach": "",
      "iownid": "155526",
      "iautoid": "98",
      "ioldid": "39",
      "imodified": "1456173220",
      "ipcount": "0",
      "ivcount": "0"
    },
    {
      "id": "28",
      "iname": "Амурская область",
      "itext": "",
      "icdate": "0/0/0 00:00:00",
      "idate": "1",
      "irate": "0",
      "iattach": "",
      "iownid": "22",
      "iautoid": "28",
      "ioldid": "40",
      "imodified": "1456173220",
      "ipcount": "0",
      "ivcount": "0"
    },
    {
      "id": "29",
      "iname": "Архангельская область",
      "itext": "",
      "icdate": "0/0/0 00:00:00",
      "idate": "1",
      "irate": "0",
      "iattach": "",
      "iownid": "23",
      "iautoid": "29",
      "ioldid": "41",
      "imodified": "1456173220",
      "ipcount": "0",
      "ivcount": "0"
    },
    {
      "id": "30",
      "iname": "Астраханская область",
      "itext": "",
      "icdate": "0/0/0 00:00:00",
      "idate": "1",
      "irate": "0",
      "iattach": "",
      "iownid": "24",
      "iautoid": "30",
      "ioldid": "42",
      "imodified": "1456173220",
      "ipcount": "0",
      "ivcount": "0"
    },
    {
      "id": "31",
      "iname": "Белгородская область",
      "itext": "",
      "icdate": "0/0/0 00:00:00",
      "idate": "1",
      "irate": "0",
      "iattach": "",
      "iownid": "25",
      "iautoid": "31",
      "ioldid": "43",
      "imodified": "1456173220",
      "ipcount": "0",
      "ivcount": "0"
    },
    {
      "id": "32",
      "iname": "Брянская область",
      "itext": "",
      "icdate": "0/0/0 00:00:00",
      "idate": "1",
      "irate": "0",
      "iattach": "",
      "iownid": "26",
      "iautoid": "32",
      "ioldid": "44",
      "imodified": "1456173220",
      "ipcount": "0",
      "ivcount": "0"
    },
    {
      "id": "33",
      "iname": "Владимирская область",
      "itext": "",
      "icdate": "0/0/0 00:00:00",
      "idate": "1",
      "irate": "0",
      "iattach": "",
      "iownid": "27",
      "iautoid": "33",
      "ioldid": "45",
      "imodified": "1456173220",
      "ipcount": "0",
      "ivcount": "0"
    },
    {
      "id": "34",
      "iname": "Волгоградская область",
      "itext": "",
      "icdate": "0/0/0 00:00:00",
      "idate": "1",
      "irate": "0",
      "iattach": "",
      "iownid": "28",
      "iautoid": "34",
      "ioldid": "46",
      "imodified": "1456173220",
      "ipcount": "0",
      "ivcount": "0"
    },
    {
      "id": "35",
      "iname": "Вологодская область",
      "itext": "",
      "icdate": "0/0/0 00:00:00",
      "idate": "1",
      "irate": "0",
      "iattach": "",
      "iownid": "29",
      "iautoid": "35",
      "ioldid": "47",
      "imodified": "1456173220",
      "ipcount": "0",
      "ivcount": "0"
    },
    {
      "id": "36",
      "iname": "Воронежская область",
      "itext": "",
      "icdate": "0/0/0 00:00:00",
      "idate": "1",
      "irate": "0",
      "iattach": "",
      "iownid": "30",
      "iautoid": "36",
      "ioldid": "48",
      "imodified": "1456173220",
      "ipcount": "0",
      "ivcount": "0"
    },
    {
      "id": "37",
      "iname": "Ивановская область",
      "itext": "",
      "icdate": "0/0/0 00:00:00",
      "idate": "1",
      "irate": "0",
      "iattach": "",
      "iownid": "31",
      "iautoid": "37",
      "ioldid": "49",
      "imodified": "1456173220",
      "ipcount": "0",
      "ivcount": "0"
    },
    {
      "id": "38",
      "iname": "Иркутская область",
      "itext": "",
      "icdate": "0/0/0 00:00:00",
      "idate": "1",
      "irate": "0",
      "iattach": "",
      "iownid": "32",
      "iautoid": "38",
      "ioldid": "50",
      "imodified": "1456173220",
      "ipcount": "0",
      "ivcount": "0"
    },
    {
      "id": "40",
      "iname": "Калужская область",
      "itext": "",
      "icdate": "0/0/0 00:00:00",
      "idate": "1",
      "irate": "0",
      "iattach": "",
      "iownid": "34",
      "iautoid": "40",
      "ioldid": "51",
      "imodified": "1456173220",
      "ipcount": "0",
      "ivcount": "0"
    },
    {
      "id": "42",
      "iname": "Кемеровская область",
      "itext": "",
      "icdate": "0/0/0 00:00:00",
      "idate": "1",
      "irate": "0",
      "iattach": "",
      "iownid": "36",
      "iautoid": "42",
      "ioldid": "52",
      "imodified": "1456173220",
      "ipcount": "0",
      "ivcount": "0"
    },
    {
      "id": "43",
      "iname": "Кировская область",
      "itext": "",
      "icdate": "0/0/0 00:00:00",
      "idate": "1",
      "irate": "0",
      "iattach": "",
      "iownid": "37",
      "iautoid": "43",
      "ioldid": "53",
      "imodified": "1456173220",
      "ipcount": "0",
      "ivcount": "0"
    },
    {
      "id": "44",
      "iname": "Костромская область",
      "itext": "",
      "icdate": "0/0/0 00:00:00",
      "idate": "1",
      "irate": "0",
      "iattach": "",
      "iownid": "38",
      "iautoid": "44",
      "ioldid": "54",
      "imodified": "1456173220",
      "ipcount": "0",
      "ivcount": "0"
    },
    {
      "id": "45",
      "iname": "Курганская область",
      "itext": "",
      "icdate": "0/0/0 00:00:00",
      "idate": "1",
      "irate": "0",
      "iattach": "",
      "iownid": "39",
      "iautoid": "45",
      "ioldid": "55",
      "imodified": "1456173220",
      "ipcount": "255",
      "ivcount": "589"
    },
    {
      "id": "46",
      "iname": "Курская область",
      "itext": "",
      "icdate": "0/0/0 00:00:00",
      "idate": "1",
      "irate": "0",
      "iattach": "",
      "iownid": "40",
      "iautoid": "46",
      "ioldid": "56",
      "imodified": "1456173220",
      "ipcount": "0",
      "ivcount": "0"
    },
    {
      "id": "47",
      "iname": "Ленинградская область",
      "itext": "",
      "icdate": "0/0/0 00:00:00",
      "idate": "1",
      "irate": "0",
      "iattach": "",
      "iownid": "41",
      "iautoid": "47",
      "ioldid": "57",
      "imodified": "1456173220",
      "ipcount": "0",
      "ivcount": "0"
    },
    {
      "id": "48",
      "iname": "Липецкая область",
      "itext": "",
      "icdate": "0/0/0 00:00:00",
      "idate": "1",
      "irate": "0",
      "iattach": "",
      "iownid": "42",
      "iautoid": "48",
      "ioldid": "58",
      "imodified": "1456173220",
      "ipcount": "0",
      "ivcount": "0"
    },
    {
      "id": "49",
      "iname": "Магаданская область",
      "itext": "",
      "icdate": "0/0/0 00:00:00",
      "idate": "1",
      "irate": "0",
      "iattach": "",
      "iownid": "43",
      "iautoid": "49",
      "ioldid": "59",
      "imodified": "1456173220",
      "ipcount": "0",
      "ivcount": "0"
    },
    {
      "id": "90",
      "iname": "Московская область",
      "itext": "",
      "icdate": "0/0/0 00:00:00",
      "idate": "1",
      "irate": "0",
      "iattach": "",
      "iownid": "44",
      "iautoid": "90",
      "ioldid": "60",
      "imodified": "1456173220",
      "ipcount": "0",
      "ivcount": "0"
    },
    {
      "id": "51",
      "iname": "Мурманская область",
      "itext": "",
      "icdate": "0/0/0 00:00:00",
      "idate": "1",
      "irate": "0",
      "iattach": "",
      "iownid": "45",
      "iautoid": "51",
      "ioldid": "61",
      "imodified": "1456173220",
      "ipcount": "0",
      "ivcount": "0"
    },
    {
      "id": "52",
      "iname": "Нижегородская область",
      "itext": "",
      "icdate": "0/0/0 00:00:00",
      "idate": "1",
      "irate": "0",
      "iattach": "",
      "iownid": "46",
      "iautoid": "52",
      "ioldid": "62",
      "imodified": "1456173220",
      "ipcount": "0",
      "ivcount": "0"
    },
    {
      "id": "53",
      "iname": "Новгородская область",
      "itext": "",
      "icdate": "0/0/0 00:00:00",
      "idate": "1",
      "irate": "0",
      "iattach": "",
      "iownid": "150462",
      "iautoid": "53",
      "ioldid": "63",
      "imodified": "1456173220",
      "ipcount": "0",
      "ivcount": "0"
    },
    {
      "id": "54",
      "iname": "Новосибирская область",
      "itext": "",
      "icdate": "0/0/0 00:00:00",
      "idate": "1",
      "irate": "0",
      "iattach": "",
      "iownid": "47",
      "iautoid": "54",
      "ioldid": "64",
      "imodified": "1456173220",
      "ipcount": "0",
      "ivcount": "0"
    },
    {
      "id": "55",
      "iname": "Омская область",
      "itext": "",
      "icdate": "0/0/0 00:00:00",
      "idate": "1",
      "irate": "0",
      "iattach": "",
      "iownid": "48",
      "iautoid": "55",
      "ioldid": "65",
      "imodified": "1456173220",
      "ipcount": "3456",
      "ivcount": "260"
    },
    {
      "id": "56",
      "iname": "Оренбургская область",
      "itext": "",
      "icdate": "0/0/0 00:00:00",
      "idate": "0",
      "irate": "0",
      "iattach": "",
      "iownid": "49",
      "iautoid": "56",
      "ioldid": "66",
      "imodified": "1456173220",
      "ipcount": "2910",
      "ivcount": "472"
    },
    {
      "id": "57",
      "iname": "Орловская область",
      "itext": "",
      "icdate": "0/0/0 00:00:00",
      "idate": "1",
      "irate": "0",
      "iattach": "",
      "iownid": "50",
      "iautoid": "57",
      "ioldid": "67",
      "imodified": "1456173220",
      "ipcount": "0",
      "ivcount": "0"
    },
    {
      "id": "58",
      "iname": "Пензенская область",
      "itext": "",
      "icdate": "0/0/0 00:00:00",
      "idate": "1",
      "irate": "0",
      "iattach": "",
      "iownid": "51",
      "iautoid": "58",
      "ioldid": "68",
      "imodified": "1456173220",
      "ipcount": "0",
      "ivcount": "0"
    },
    {
      "id": "60",
      "iname": "Псковская область",
      "itext": "",
      "icdate": "0/0/0 00:00:00",
      "idate": "1",
      "irate": "0",
      "iattach": "",
      "iownid": "53",
      "iautoid": "60",
      "ioldid": "69",
      "imodified": "1456173220",
      "ipcount": "0",
      "ivcount": "0"
    },
    {
      "id": "61",
      "iname": "Ростовская область",
      "itext": "",
      "icdate": "0/0/0 00:00:00",
      "idate": "1",
      "irate": "0",
      "iattach": "",
      "iownid": "54",
      "iautoid": "61",
      "ioldid": "70",
      "imodified": "1456173220",
      "ipcount": "0",
      "ivcount": "0"
    },
    {
      "id": "62",
      "iname": "Рязанская область",
      "itext": "",
      "icdate": "0/0/0 00:00:00",
      "idate": "1",
      "irate": "0",
      "iattach": "",
      "iownid": "55",
      "iautoid": "62",
      "ioldid": "71",
      "imodified": "1456173220",
      "ipcount": "0",
      "ivcount": "0"
    },
    {
      "id": "63",
      "iname": "Самарская область",
      "itext": "",
      "icdate": "0/0/0 00:00:00",
      "idate": "1",
      "irate": "0",
      "iattach": "",
      "iownid": "56",
      "iautoid": "63",
      "ioldid": "72",
      "imodified": "1456173220",
      "ipcount": "0",
      "ivcount": "0"
    },
    {
      "id": "64",
      "iname": "Саратовская область",
      "itext": "",
      "icdate": "0/0/0 00:00:00",
      "idate": "1",
      "irate": "0",
      "iattach": "",
      "iownid": "57",
      "iautoid": "64",
      "ioldid": "73",
      "imodified": "1456173220",
      "ipcount": "0",
      "ivcount": "0"
    },
    {
      "id": "65",
      "iname": "Сахалинская область",
      "itext": "",
      "icdate": "0/0/0 00:00:00",
      "idate": "1",
      "irate": "0",
      "iattach": "",
      "iownid": "58",
      "iautoid": "65",
      "ioldid": "74",
      "imodified": "1456173220",
      "ipcount": "0",
      "ivcount": "0"
    },
    {
      "id": "96",
      "iname": "Свердловская область",
      "itext": "",
      "icdate": "0/0/0 00:00:00",
      "idate": "0",
      "irate": "0",
      "iattach": "",
      "iownid": "147361",
      "iautoid": "96",
      "ioldid": "75",
      "imodified": "1456173220",
      "ipcount": "3464",
      "ivcount": "2541"
    },
    {
      "id": "67",
      "iname": "Смоленская область",
      "itext": "",
      "icdate": "0/0/0 00:00:00",
      "idate": "1",
      "irate": "0",
      "iattach": "",
      "iownid": "59",
      "iautoid": "67",
      "ioldid": "76",
      "imodified": "1456173220",
      "ipcount": "0",
      "ivcount": "0"
    },
    {
      "id": "68",
      "iname": "Тамбовская область",
      "itext": "",
      "icdate": "0/0/0 00:00:00",
      "idate": "1",
      "irate": "0",
      "iattach": "",
      "iownid": "60",
      "iautoid": "68",
      "ioldid": "77",
      "imodified": "1456173220",
      "ipcount": "0",
      "ivcount": "0"
    },
    {
      "id": "69",
      "iname": "Тверская область",
      "itext": "",
      "icdate": "0/0/0 00:00:00",
      "idate": "1",
      "irate": "0",
      "iattach": "",
      "iownid": "61",
      "iautoid": "69",
      "ioldid": "78",
      "imodified": "1456173220",
      "ipcount": "0",
      "ivcount": "0"
    },
    {
      "id": "70",
      "iname": "Томская область",
      "itext": "",
      "icdate": "0/0/0 00:00:00",
      "idate": "0",
      "irate": "0",
      "iattach": "",
      "iownid": "62",
      "iautoid": "70",
      "ioldid": "79",
      "imodified": "1456173220",
      "ipcount": "91",
      "ivcount": "470"
    },
    {
      "id": "71",
      "iname": "Тульская область",
      "itext": "",
      "icdate": "0/0/0 00:00:00",
      "idate": "1",
      "irate": "0",
      "iattach": "",
      "iownid": "63",
      "iautoid": "71",
      "ioldid": "80",
      "imodified": "1456173220",
      "ipcount": "0",
      "ivcount": "0"
    },
    {
      "id": "72",
      "iname": "Тюменская область",
      "itext": "",
      "icdate": "0/0/0 00:00:00",
      "idate": "0",
      "irate": "0",
      "iattach": "",
      "iownid": "64",
      "iautoid": "72",
      "ioldid": "81",
      "imodified": "1456173220",
      "ipcount": "7879",
      "ivcount": "1196"
    },
    {
      "id": "73",
      "iname": "Ульяновская область",
      "itext": "",
      "icdate": "0/0/0 00:00:00",
      "idate": "1",
      "irate": "0",
      "iattach": "",
      "iownid": "65",
      "iautoid": "73",
      "ioldid": "82",
      "imodified": "1456173220",
      "ipcount": "0",
      "ivcount": "0"
    },
    {
      "id": "74",
      "iname": "Челябинская область",
      "itext": "",
      "icdate": "0/0/0 00:00:00",
      "idate": "0",
      "irate": "0",
      "iattach": "",
      "iownid": "66",
      "iautoid": "74",
      "ioldid": "83",
      "imodified": "1456173220",
      "ipcount": "8410",
      "ivcount": "1794"
    },
    {
      "id": "76",
      "iname": "Ярославская область",
      "itext": "",
      "icdate": "0/0/0 00:00:00",
      "idate": "1",
      "irate": "0",
      "iattach": "",
      "iownid": "68",
      "iautoid": "76",
      "ioldid": "84",
      "imodified": "1456173220",
      "ipcount": "0",
      "ivcount": "0"
    }
  ]
}