{
  "RECORDS": [
    {
      "id": "1",
      "iprofile": "2",
      "iname": "undefined",
      "itext": "Какой по вашему рыболовный узел самый надежный? Вот всегда мучаюсь :)",
      "icdate": "22/6/2015 09:50:28",
      "idate": "1434955828",
      "irate": "0",
      "iattach": ""
    },
    {
      "id": "2",
      "iprofile": "5",
      "iname": "undefined",
      "itext": "Ловится ли лещ на корочку?\n\nВсегда считал что он клюет на опарыша и червя, но уже какой раз вижу в отчетах, что народ ловит его на корку с маслом? Где вы таких лещей находите?",
      "icdate": "22/6/2015 10:15:59",
      "idate": "1434957359",
      "irate": "0",
      "iattach": ""
    },
    {
      "id": "3",
      "iprofile": "7",
      "iname": "undefined",
      "itext": "Посоветуйте люди добрые, какой мотор для рыбалки купить, двухтактный или четырехтактный? И желательно с аргументами за и против.",
      "icdate": "22/6/2015 11:05:07",
      "idate": "1434960307",
      "irate": "1",
      "iattach": ""
    },
    {
      "id": "4",
      "iprofile": "21",
      "iname": "undefined",
      "itext": "Когда у карпа начинается нерест и сколько длится?",
      "icdate": "22/6/2015 14:15:18",
      "idate": "1434971718",
      "irate": "0",
      "iattach": ""
    }
  ]
}