{
  "RECORDS": [
    {
      "id": "1",
      "iown": "0",
      "iname": "Летняя рыбалка",
      "idate": "0",
      "irate": "0",
      "iraion": "0"
    },
    {
      "id": "2",
      "iown": "0",
      "iname": "Зимняя рыбалка",
      "idate": "0",
      "irate": "0",
      "iraion": "0"
    },
    {
      "id": "3",
      "iown": "0",
      "iname": "Рыба",
      "idate": "0",
      "irate": "0",
      "iraion": "0"
    },
    {
      "id": "4",
      "iown": "1",
      "iname": "Спиннинг",
      "idate": "0",
      "irate": "0",
      "iraion": "0"
    },
    {
      "id": "5",
      "iown": "4",
      "iname": "Катушки",
      "idate": "0",
      "irate": "0",
      "iraion": "0"
    },
    {
      "id": "11",
      "iown": "16",
      "iname": "Приманки",
      "idate": "0",
      "irate": "0",
      "iraion": "0"
    },
    {
      "id": "7",
      "iown": "1",
      "iname": "Фидер",
      "idate": "0",
      "irate": "0",
      "iraion": "0"
    },
    {
      "id": "8",
      "iown": "7",
      "iname": "Катушки",
      "idate": "0",
      "irate": "0",
      "iraion": "0"
    },
    {
      "id": "9",
      "iown": "0",
      "iname": "Базовые знания",
      "idate": "0",
      "irate": "0",
      "iraion": "0"
    },
    {
      "id": "10",
      "iown": "9",
      "iname": "Места ловли",
      "idate": "0",
      "irate": "0",
      "iraion": "0"
    },
    {
      "id": "12",
      "iown": "11",
      "iname": "Чертик",
      "idate": "0",
      "irate": "0",
      "iraion": "0"
    },
    {
      "id": "13",
      "iown": "16",
      "iname": "Насадки",
      "idate": "0",
      "irate": "0",
      "iraion": "0"
    },
    {
      "id": "14",
      "iown": "13",
      "iname": "Живец",
      "idate": "0",
      "irate": "0",
      "iraion": "0"
    },
    {
      "id": "15",
      "iown": "3",
      "iname": "Щука",
      "idate": "0",
      "irate": "0",
      "iraion": "0"
    },
    {
      "id": "16",
      "iown": "2",
      "iname": "Зимняя удочка",
      "idate": "0",
      "irate": "0",
      "iraion": "0"
    },
    {
      "id": "17",
      "iown": "2",
      "iname": "Жерлицы",
      "idate": "0",
      "irate": "0",
      "iraion": "0"
    },
    {
      "id": "18",
      "iown": "17",
      "iname": "Насадки",
      "idate": "0",
      "irate": "0",
      "iraion": "0"
    },
    {
      "id": "19",
      "iown": "1",
      "iname": "Резинка",
      "idate": "0",
      "irate": "0",
      "iraion": "0"
    },
    {
      "id": "20",
      "iown": "3",
      "iname": "Судак",
      "idate": "0",
      "irate": "0",
      "iraion": "0"
    },
    {
      "id": "21",
      "iown": "20",
      "iname": "Рецепты",
      "idate": "0",
      "irate": "0",
      "iraion": "0"
    },
    {
      "id": "22",
      "iown": "9",
      "iname": "Прикормка",
      "idate": "0",
      "irate": "0",
      "iraion": "0"
    },
    {
      "id": "23",
      "iown": "9",
      "iname": "Насадки",
      "idate": "0",
      "irate": "0",
      "iraion": "0"
    },
    {
      "id": "24",
      "iown": "16",
      "iname": "Прикормка",
      "idate": "0",
      "irate": "0",
      "iraion": "0"
    },
    {
      "id": "25",
      "iown": "23",
      "iname": "Хлеб",
      "idate": "0",
      "irate": "0",
      "iraion": "0"
    },
    {
      "id": "26",
      "iown": "23",
      "iname": "Мотыль",
      "idate": "0",
      "irate": "0",
      "iraion": "0"
    },
    {
      "id": "27",
      "iown": "23",
      "iname": "Червь",
      "idate": "0",
      "irate": "0",
      "iraion": "0"
    },
    {
      "id": "28",
      "iown": "23",
      "iname": "Тесто",
      "idate": "0",
      "irate": "0",
      "iraion": "0"
    },
    {
      "id": "31",
      "iown": "13",
      "iname": "Мотыль",
      "idate": "0",
      "irate": "0",
      "iraion": "0"
    },
    {
      "id": "32",
      "iown": "11",
      "iname": "Мормышки",
      "idate": "0",
      "irate": "0",
      "iraion": "0"
    },
    {
      "id": "33",
      "iown": "9",
      "iname": "Узлы",
      "idate": "0",
      "irate": "0",
      "iraion": "0"
    },
    {
      "id": "34",
      "iown": "1",
      "iname": "Поплавочная удочка",
      "idate": "0",
      "irate": "0",
      "iraion": "0"
    },
    {
      "id": "35",
      "iown": "34",
      "iname": "Оснастка",
      "idate": "0",
      "irate": "0",
      "iraion": "0"
    },
    {
      "id": "36",
      "iown": "16",
      "iname": "Оснастка",
      "idate": "0",
      "irate": "0",
      "iraion": "0"
    },
    {
      "id": "37",
      "iown": "3",
      "iname": "Форель",
      "idate": "0",
      "irate": "0",
      "iraion": "0"
    },
    {
      "id": "38",
      "iown": "3",
      "iname": "Карась",
      "idate": "0",
      "irate": "0",
      "iraion": "0"
    },
    {
      "id": "39",
      "iown": "7",
      "iname": "Насадки",
      "idate": "0",
      "irate": "0",
      "iraion": "0"
    },
    {
      "id": "40",
      "iown": "34",
      "iname": "Насадки",
      "idate": "0",
      "irate": "0",
      "iraion": "0"
    },
    {
      "id": "41",
      "iown": "23",
      "iname": "Опарыш ",
      "idate": "0",
      "irate": "0",
      "iraion": "0"
    },
    {
      "id": "42",
      "iown": "7",
      "iname": "Оснастка",
      "idate": "0",
      "irate": "0",
      "iraion": "0"
    },
    {
      "id": "43",
      "iown": "3",
      "iname": "Карп",
      "idate": "0",
      "irate": "0",
      "iraion": "0"
    },
    {
      "id": "44",
      "iown": "0",
      "iname": "Оборудование",
      "idate": "0",
      "irate": "0",
      "iraion": "0"
    },
    {
      "id": "45",
      "iown": "44",
      "iname": "Лодки",
      "idate": "0",
      "irate": "0",
      "iraion": "0"
    },
    {
      "id": "46",
      "iown": "44",
      "iname": "Моторы",
      "idate": "0",
      "irate": "0",
      "iraion": "0"
    },
    {
      "id": "47",
      "iown": "44",
      "iname": "Зимние палатки",
      "idate": "0",
      "irate": "0",
      "iraion": "0"
    },
    {
      "id": "48",
      "iown": "44",
      "iname": "Ледобуры",
      "idate": "0",
      "irate": "0",
      "iraion": "0"
    },
    {
      "id": "49",
      "iown": "3",
      "iname": "Белый амур",
      "idate": "0",
      "irate": "0",
      "iraion": "0"
    },
    {
      "id": "50",
      "iown": "3",
      "iname": "Усач",
      "idate": "0",
      "irate": "0",
      "iraion": "0"
    },
    {
      "id": "51",
      "iown": "3",
      "iname": "Сом",
      "idate": "0",
      "irate": "0",
      "iraion": "0"
    },
    {
      "id": "52",
      "iown": "3",
      "iname": "Налим",
      "idate": "0",
      "irate": "0",
      "iraion": "0"
    },
    {
      "id": "53",
      "iown": "3",
      "iname": "Лещ",
      "idate": "0",
      "irate": "0",
      "iraion": "0"
    },
    {
      "id": "54",
      "iown": "53",
      "iname": "Рецепты",
      "idate": "0",
      "irate": "0",
      "iraion": "0"
    },
    {
      "id": "55",
      "iown": "4",
      "iname": "Приманки",
      "idate": "0",
      "irate": "0",
      "iraion": "0"
    },
    {
      "id": "56",
      "iown": "55",
      "iname": "Воблеры",
      "idate": "0",
      "irate": "0",
      "iraion": "0"
    },
    {
      "id": "57",
      "iown": "55",
      "iname": "Попперы",
      "idate": "0",
      "irate": "0",
      "iraion": "0"
    },
    {
      "id": "58",
      "iown": "3",
      "iname": "Окунь",
      "idate": "0",
      "irate": "0",
      "iraion": "0"
    },
    {
      "id": "59",
      "iown": "3",
      "iname": "Жерех",
      "idate": "0",
      "irate": "0",
      "iraion": "0"
    },
    {
      "id": "60",
      "iown": "55",
      "iname": "Блесны",
      "idate": "0",
      "irate": "0",
      "iraion": "0"
    },
    {
      "id": "61",
      "iown": "3",
      "iname": "Таймень",
      "idate": "0",
      "irate": "0",
      "iraion": "0"
    },
    {
      "id": "62",
      "iown": "3",
      "iname": "Сиг",
      "idate": "0",
      "irate": "0",
      "iraion": "0"
    },
    {
      "id": "63",
      "iown": "3",
      "iname": "Хариус",
      "idate": "0",
      "irate": "0",
      "iraion": "0"
    },
    {
      "id": "64",
      "iown": "55",
      "iname": "Джиг",
      "idate": "0",
      "irate": "0",
      "iraion": "0"
    },
    {
      "id": "65",
      "iown": "2",
      "iname": "Спиннинг",
      "idate": "0",
      "irate": "0",
      "iraion": "0"
    },
    {
      "id": "66",
      "iown": "10",
      "iname": "Микрореки",
      "idate": "0",
      "irate": "0",
      "iraion": "0"
    },
    {
      "id": "67",
      "iown": "9",
      "iname": "Подводные съемки",
      "idate": "0",
      "irate": "0",
      "iraion": "0"
    },
    {
      "id": "68",
      "iown": "3",
      "iname": "Ротан",
      "idate": "0",
      "irate": "0",
      "iraion": "0"
    },
    {
      "id": "69",
      "iown": "11",
      "iname": "Блесна",
      "idate": "0",
      "irate": "0",
      "iraion": "0"
    },
    {
      "id": "70",
      "iown": "11",
      "iname": "Балансир",
      "idate": "0",
      "irate": "0",
      "iraion": "0"
    },
    {
      "id": "71",
      "iown": "1",
      "iname": "Нахлыст",
      "idate": "0",
      "irate": "0",
      "iraion": "0"
    },
    {
      "id": "72",
      "iown": "44",
      "iname": "Эхолоты",
      "idate": "0",
      "irate": "0",
      "iraion": "0"
    },
    {
      "id": "73",
      "iown": "42",
      "iname": "Флэт кормушки",
      "idate": "0",
      "irate": "0",
      "iraion": "0"
    },
    {
      "id": "74",
      "iown": "42",
      "iname": "Крючки",
      "idate": "0",
      "irate": "0",
      "iraion": "0"
    },
    {
      "id": "75",
      "iown": "57",
      "iname": "Лягушка",
      "idate": "0",
      "irate": "0",
      "iraion": "0"
    },
    {
      "id": "76",
      "iown": "1",
      "iname": "Кольцо",
      "idate": "0",
      "irate": "0",
      "iraion": "0"
    },
    {
      "id": "77",
      "iown": "57",
      "iname": "Хорватское яйцо",
      "idate": "0",
      "irate": "0",
      "iraion": "0"
    },
    {
      "id": "78",
      "iown": "1",
      "iname": "Троллинг",
      "idate": "0",
      "irate": "0",
      "iraion": "0"
    },
    {
      "id": "79",
      "iown": "78",
      "iname": "Даунриггер",
      "idate": "0",
      "irate": "0",
      "iraion": "0"
    },
    {
      "id": "80",
      "iown": "1",
      "iname": "Донка",
      "idate": "0",
      "irate": "0",
      "iraion": "0"
    },
    {
      "id": "81",
      "iown": "80",
      "iname": "Убийца карася",
      "idate": "0",
      "irate": "0",
      "iraion": "0"
    },
    {
      "id": "82",
      "iown": "23",
      "iname": "Манная болтушка",
      "idate": "0",
      "irate": "0",
      "iraion": "0"
    },
    {
      "id": "83",
      "iown": "22",
      "iname": "Гороховая мастырка",
      "idate": "0",
      "irate": "0",
      "iraion": "0"
    },
    {
      "id": "84",
      "iown": "1",
      "iname": "Бутылка",
      "idate": "0",
      "irate": "0",
      "iraion": "0"
    },
    {
      "id": "85",
      "iown": "23",
      "iname": "Живец",
      "idate": "0",
      "irate": "0",
      "iraion": "0"
    },
    {
      "id": "86",
      "iown": "4",
      "iname": "Обзоры и тесты",
      "idate": "0",
      "irate": "0",
      "iraion": "0"
    },
    {
      "id": "87",
      "iown": "28",
      "iname": "Тесто из манки",
      "idate": "0",
      "irate": "0",
      "iraion": "0"
    },
    {
      "id": "88",
      "iown": "60",
      "iname": "Жучок",
      "idate": "0",
      "irate": "0",
      "iraion": "0"
    },
    {
      "id": "89",
      "iown": "22",
      "iname": "Ароматизаторы",
      "idate": "0",
      "irate": "0",
      "iraion": "0"
    },
    {
      "id": "90",
      "iown": "2",
      "iname": "Донные снасти",
      "idate": "0",
      "irate": "0",
      "iraion": "0"
    },
    {
      "id": "91",
      "iown": "1",
      "iname": "Балда",
      "idate": "0",
      "irate": "0",
      "iraion": "0"
    },
    {
      "id": "92",
      "iown": "44",
      "iname": "Одежда",
      "idate": "0",
      "irate": "0",
      "iraion": "0"
    },
    {
      "id": "93",
      "iown": "32",
      "iname": "Коза",
      "idate": "0",
      "irate": "0",
      "iraion": "0"
    },
    {
      "id": "94",
      "iown": "32",
      "iname": "Кошачий глаз",
      "idate": "0",
      "irate": "0",
      "iraion": "0"
    },
    {
      "id": "95",
      "iown": "32",
      "iname": "Медуза",
      "idate": "0",
      "irate": "0",
      "iraion": "0"
    },
    {
      "id": "96",
      "iown": "32",
      "iname": "Лепесток",
      "idate": "0",
      "irate": "0",
      "iraion": "0"
    },
    {
      "id": "97",
      "iown": "4",
      "iname": "Оснастка",
      "idate": "0",
      "irate": "0",
      "iraion": "0"
    },
    {
      "id": "98",
      "iown": "17",
      "iname": "Оснастка",
      "idate": "0",
      "irate": "0",
      "iraion": "0"
    },
    {
      "id": "99",
      "iown": "23",
      "iname": "Бойлы",
      "idate": "0",
      "irate": "0",
      "iraion": "0"
    },
    {
      "id": "100",
      "iown": "39",
      "iname": "Бойлы",
      "idate": "0",
      "irate": "0",
      "iraion": "0"
    },
    {
      "id": "101",
      "iown": "1",
      "iname": "Квок",
      "idate": "0",
      "irate": "0",
      "iraion": "0"
    },
    {
      "id": "102",
      "iown": "44",
      "iname": "Сняряжение",
      "idate": "0",
      "irate": "0",
      "iraion": "0"
    },
    {
      "id": "103",
      "iown": "102",
      "iname": "Тубусы",
      "idate": "0",
      "irate": "0",
      "iraion": "0"
    },
    {
      "id": "105",
      "iown": "80",
      "iname": "Оснастка",
      "idate": "0",
      "irate": "0",
      "iraion": "0"
    },
    {
      "id": "106",
      "iown": "80",
      "iname": "Соска",
      "idate": "0",
      "irate": "0",
      "iraion": "0"
    },
    {
      "id": "107",
      "iown": "80",
      "iname": "Пробка",
      "idate": "0",
      "irate": "0",
      "iraion": "0"
    },
    {
      "id": "108",
      "iown": "35",
      "iname": "Поплавки",
      "idate": "0",
      "irate": "0",
      "iraion": "0"
    },
    {
      "id": "109",
      "iown": "55",
      "iname": "Балда",
      "idate": "0",
      "irate": "0",
      "iraion": "0"
    },
    {
      "id": "110",
      "iown": "80",
      "iname": "Макушатник",
      "idate": "0",
      "irate": "0",
      "iraion": "0"
    },
    {
      "id": "111",
      "iown": "33",
      "iname": "Крючковяз",
      "idate": "0",
      "irate": "0",
      "iraion": "0"
    },
    {
      "id": "112",
      "iown": "3",
      "iname": "Голавль",
      "idate": "0",
      "irate": "0",
      "iraion": "0"
    },
    {
      "id": "113",
      "iown": "3",
      "iname": "Плотва",
      "idate": "0",
      "irate": "0",
      "iraion": "0"
    },
    {
      "id": "115",
      "iown": "23",
      "iname": "Картошка",
      "idate": "0",
      "irate": "0",
      "iraion": "0"
    },
    {
      "id": "116",
      "iown": "23",
      "iname": "Мастырка",
      "idate": "0",
      "irate": "0",
      "iraion": "0"
    },
    {
      "id": "117",
      "iown": "44",
      "iname": "Кухня рыбака",
      "idate": "0",
      "irate": "0",
      "iraion": "0"
    },
    {
      "id": "118",
      "iown": "3",
      "iname": "Чебак",
      "idate": "0",
      "irate": "0",
      "iraion": "0"
    },
    {
      "id": "119",
      "iown": "23",
      "iname": "Манка",
      "idate": "0",
      "irate": "0",
      "iraion": "0"
    },
    {
      "id": "120",
      "iown": "57",
      "iname": "Попла поппер",
      "idate": "0",
      "irate": "0",
      "iraion": "0"
    },
    {
      "id": "121",
      "iown": "33",
      "iname": "Тестирование узлов",
      "idate": "0",
      "irate": "0",
      "iraion": "0"
    },
    {
      "id": "122",
      "iown": "33",
      "iname": "Поводки",
      "idate": "0",
      "irate": "0",
      "iraion": "0"
    },
    {
      "id": "123",
      "iown": "23",
      "iname": "Мамалыга",
      "idate": "0",
      "irate": "0",
      "iraion": "0"
    },
    {
      "id": "124",
      "iown": "22",
      "iname": "Кукуруза",
      "idate": "0",
      "irate": "0",
      "iraion": "0"
    },
    {
      "id": "125",
      "iown": "34",
      "iname": "Сбирулино",
      "idate": "0",
      "irate": "0",
      "iraion": "0"
    },
    {
      "id": "126",
      "iown": "9",
      "iname": "Погода",
      "idate": "0",
      "irate": "0",
      "iraion": "0"
    },
    {
      "id": "127",
      "iown": "55",
      "iname": "Микро-колебалки",
      "idate": "0",
      "irate": "0",
      "iraion": "0"
    },
    {
      "id": "128",
      "iown": "60",
      "iname": "Самодельные блесны",
      "idate": "0",
      "irate": "0",
      "iraion": "0"
    },
    {
      "id": "129",
      "iown": "3",
      "iname": "Сазан",
      "idate": "0",
      "irate": "0",
      "iraion": "0"
    },
    {
      "id": "130",
      "iown": "4",
      "iname": "Отводной поводок",
      "idate": "0",
      "irate": "0",
      "iraion": "0"
    }
  ]
}