{
    "/dist/uneight/apanel/js/app.js": "/dist/uneight/apanel/js/app.js",
    "/dist/js/app.js": "/dist/js/app.js",
    "/dist/css/app.css": "/dist/css/app.css",
    "/dist/uneight/apanel/css/app.css": "/dist/uneight/apanel/css/app.css"
}
